Project 1 Kiran
…
## # A tibble: 6 x 6
##   country year  `happiness scor… `income per per… `deaths by murd…
##   <chr>   <chr>            <dbl>            <dbl>            <dbl>
## 1 Afghan… 2008             0.372             1270             4960
## 2 Afghan… 2009             0.44              1500             4990
## 3 Afghan… 2010             0.476             1670             4940
## 4 Afghan… 2011             0.383             1630             5020
## 5 Afghan… 2012             0.378             1770             5190
## 6 Afghan… 2013             0.357             1810             5560
## # … with 1 more variable: `happiness scores (1-10)` <dbl>

mergeddata %>% filter(year == "2015") %>% arrange(desc(`deaths by murder`, 
    na.rm = T))

## # A tibble: 140 x 5
##    country       year  `happiness scores` `income per person` `deaths by murder`
##    <chr>         <chr>              <dbl>               <dbl>              <dbl>
##  1 Brazil        2015               0.655               14800              60100
##  2 India         2015               0.434                5740              48300
##  3 Russia        2015               0.6                 24500              24200
##  4 Mexico        2015               0.624               17500              21100
##  5 China         2015               0.53                13500              18800
##  6 South Africa  2015               0.489               12400              18800
##  7 United States 2015               0.686               53200              18100
##  8 Colombia      2015               0.639               13100              16700
##  9 Philippines   2015               0.555                6850              14200
## 10 Venezuela     2015               0.557               15600              12400
## # … with 130 more rows
…
